Apr 29, 2019 10:30:41 PM Server.PooledConnectionHandeler processRequest
INFO: Server starting...
Apr 29, 2019 10:31:37 PM Server.PooledConnectionHandeler handleConnection
INFO: Command recieved from client 0%%nathaniel@gmail.com%%1234Test!
Apr 29, 2019 10:32:37 PM Server.PooledConnectionHandeler handleConnection
INFO: Command recieved from client 3%%test1%%test1%%test1%%test1%%test1%%test1%%18%%test1%%2019%%test1%%1%%test1%%34
Apr 29, 2019 10:32:58 PM Server.PooledConnectionHandeler handleConnection
INFO: Command recieved from client 2%%test1%%test1
Apr 29, 2019 10:33:14 PM Server.PooledConnectionHandeler handleConnection
INFO: Command recieved from client 4%%1054
Apr 29, 2019 10:33:20 PM Server.PooledConnectionHandeler handleConnection
INFO: Command recieved from client 7%%
